{
  "dates": {
    "maximum": "2025-11-25",
    "minimum": "2025-10-01"
  },
  "page": 1,
  "results": [
    {
      "adult": false,
      "backdrop_path": "/path.jpg", 
      "genre_ids": [1, 2, 3, 4],
      "id": 1,
      "original_name": "Original Title",
      "overview": "Overview",
      "popularity": 1.0,
      "poster_path": "/path.jpg", 
      "name": "Title",
      "vote_average": 1.0,
      "vote_count": 1,
      "first_air_date": "2020-05-05" 
    }
  ],
  "total_pages": 47,
  "total_results": 940
}